^E:\---VS 2017---\MISHA_STEP\HOMEWORK\19.03.19\PROJECT2\SOURCE.CPP
E:\---VS 2017---\MISHA_STEP\HOMEWORK\19.03.19\PROJECT2\DEBUG\VC141.PDB
E:\---VS 2017---\MISHA_STEP\HOMEWORK\19.03.19\PROJECT2\DEBUG\VC141.IDB
E:\---VS 2017---\MISHA_STEP\HOMEWORK\19.03.19\PROJECT2\DEBUG\SOURCE.OBJ
