^D:\MISHA_STEP\CLASSWORK\12.03.19\12.03.19\SOURCE.CPP
D:\MISHA_STEP\CLASSWORK\12.03.19\12.03.19\DEBUG\VC141.PDB
D:\MISHA_STEP\CLASSWORK\12.03.19\12.03.19\DEBUG\VC141.IDB
D:\MISHA_STEP\CLASSWORK\12.03.19\12.03.19\DEBUG\SOURCE.OBJ
^E:\---VS 2017---\MISHA_STEP\CLASSWORK\12.03.19\12.03.19\SOURCE.CPP
E:\---VS 2017---\MISHA_STEP\CLASSWORK\12.03.19\12.03.19\DEBUG\VC141.PDB
E:\---VS 2017---\MISHA_STEP\CLASSWORK\12.03.19\12.03.19\DEBUG\VC141.IDB
E:\---VS 2017---\MISHA_STEP\CLASSWORK\12.03.19\12.03.19\DEBUG\SOURCE.OBJ
