^E:\---VS 2017---\MISHA_STEP\CLASSWORK\14.02.19\PROJECT1\DEBUG\SOURCE1.OBJ
E:\---VS 2017---\MISHA_STEP\CLASSWORK\14.02.19\DEBUG\PROJECT1.EXE
E:\---VS 2017---\MISHA_STEP\CLASSWORK\14.02.19\DEBUG\PROJECT1.ILK
E:\---VS 2017---\MISHA_STEP\CLASSWORK\14.02.19\DEBUG\PROJECT1.PDB
