^D:\MISHA_STEP\CLASSWORK\04.04.2019\04.04.2019\DEBUG\SOURCE.OBJ
D:\MISHA_STEP\CLASSWORK\04.04.2019\DEBUG\04.04.2019.EXE
D:\MISHA_STEP\CLASSWORK\04.04.2019\DEBUG\04.04.2019.ILK
D:\MISHA_STEP\CLASSWORK\04.04.2019\DEBUG\04.04.2019.PDB
