^E:\---VS 2017---\MISHA_STEP\HOMEWORK\05.03.19\PROJECT3\DEBUG\SOURCE.OBJ
E:\---VS 2017---\MISHA_STEP\HOMEWORK\05.03.19\DEBUG\PROJECT3.EXE
E:\---VS 2017---\MISHA_STEP\HOMEWORK\05.03.19\DEBUG\PROJECT3.ILK
E:\---VS 2017---\MISHA_STEP\HOMEWORK\05.03.19\DEBUG\PROJECT3.PDB
