^E:\---VS 2017---\MISHA_STEP\HOMEWORK\31.01.19\PROJECT2\DEBUG\SOURCE.OBJ
E:\---VS 2017---\MISHA_STEP\HOMEWORK\31.01.19\DEBUG\PROJECT2.EXE
E:\---VS 2017---\MISHA_STEP\HOMEWORK\31.01.19\DEBUG\PROJECT2.ILK
E:\---VS 2017---\MISHA_STEP\HOMEWORK\31.01.19\DEBUG\PROJECT2.PDB
