^E:\---VS 2017---\MISHA_STEP\CLASSWORK\07.03.19\07.03.19\DEBUG\SOURCE.OBJ
E:\---VS 2017---\MISHA_STEP\CLASSWORK\07.03.19\DEBUG\07.03.19.EXE
E:\---VS 2017---\MISHA_STEP\CLASSWORK\07.03.19\DEBUG\07.03.19.ILK
E:\---VS 2017---\MISHA_STEP\CLASSWORK\07.03.19\DEBUG\07.03.19.PDB
^D:\MISHA_STEP\CLASSWORK\07.03.19\07.03.19\DEBUG\SOURCE.OBJ
D:\MISHA_STEP\CLASSWORK\07.03.19\DEBUG\07.03.19.ILK
D:\MISHA_STEP\CLASSWORK\07.03.19\DEBUG\07.03.19.EXE
D:\MISHA_STEP\CLASSWORK\07.03.19\DEBUG\07.03.19.PDB
