^E:\---VS 2017---\MISHA_STEP\HOMEWORK\05.03.19\05.03.19\DEBUG\SOURCE.OBJ
E:\---VS 2017---\MISHA_STEP\HOMEWORK\05.03.19\DEBUG\05.03.19.EXE
E:\---VS 2017---\MISHA_STEP\HOMEWORK\05.03.19\DEBUG\05.03.19.ILK
E:\---VS 2017---\MISHA_STEP\HOMEWORK\05.03.19\DEBUG\05.03.19.PDB
