^E:\---VS 2017---\MISHA_STEP\HOMEWORK\31.01.19\TASK_3\DEBUG\SOURCE.OBJ
E:\---VS 2017---\MISHA_STEP\HOMEWORK\31.01.19\DEBUG\TASK_3.EXE
E:\---VS 2017---\MISHA_STEP\HOMEWORK\31.01.19\DEBUG\TASK_3.ILK
E:\---VS 2017---\MISHA_STEP\HOMEWORK\31.01.19\DEBUG\TASK_3.PDB
