^D:\MISHA_STEP\CLASSWORK\26.02.19\PROJECT2\DEBUG\SOURCE.OBJ
D:\MISHA_STEP\CLASSWORK\26.02.19\DEBUG\PROJECT2.EXE
D:\MISHA_STEP\CLASSWORK\26.02.19\DEBUG\PROJECT2.ILK
D:\MISHA_STEP\CLASSWORK\26.02.19\DEBUG\PROJECT2.PDB
