^D:\MISHA_STEP\CLASSWORK\21.03.19\PROJECT1\SOURCE.CPP
D:\MISHA_STEP\CLASSWORK\21.03.19\PROJECT1\DEBUG\VC141.PDB
D:\MISHA_STEP\CLASSWORK\21.03.19\PROJECT1\DEBUG\VC141.IDB
D:\MISHA_STEP\CLASSWORK\21.03.19\PROJECT1\DEBUG\SOURCE.OBJ
