^D:\MISHA_STEP\CLASSWORK\05.03.19\PROJECT3\DEBUG\SOURCE.OBJ
/OUT:"D:\MISHA_STEP\CLASSWORK\05.03.19\DEBUG\PROJECT3.EXE" /INCREMENTAL /NOLOGO KERNEL32.LIB USER32.LIB GDI32.LIB WINSPOOL.LIB COMDLG32.LIB ADVAPI32.LIB SHELL32.LIB OLE32.LIB OLEAUT32.LIB UUID.LIB ODBC32.LIB ODBCCP32.LIB /MANIFEST /MANIFESTUAC:"level='asInvoker' uiAccess='false'" /manifest:embed /DEBUG:FASTLINK /PDB:"D:\MISHA_STEP\CLASSWORK\05.03.19\DEBUG\PROJECT3.PDB" /TLBID:1 /DYNAMICBASE /NXCOMPAT /IMPLIB:"D:\MISHA_STEP\CLASSWORK\05.03.19\DEBUG\PROJECT3.LIB" /MACHINE:X86 DEBUG\SOURCE.OBJ
^E:\---VS 2017---\MISHA_STEP\CLASSWORK\05.03.19\PROJECT3\DEBUG\SOURCE.OBJ
/OUT:"E:\---VS 2017---\MISHA_STEP\CLASSWORK\05.03.19\DEBUG\PROJECT3.EXE" /INCREMENTAL /NOLOGO KERNEL32.LIB USER32.LIB GDI32.LIB WINSPOOL.LIB COMDLG32.LIB ADVAPI32.LIB SHELL32.LIB OLE32.LIB OLEAUT32.LIB UUID.LIB ODBC32.LIB ODBCCP32.LIB /MANIFEST /MANIFESTUAC:"level='asInvoker' uiAccess='false'" /manifest:embed /DEBUG:FASTLINK /PDB:"E:\---VS 2017---\MISHA_STEP\CLASSWORK\05.03.19\DEBUG\PROJECT3.PDB" /TLBID:1 /DYNAMICBASE /NXCOMPAT /IMPLIB:"E:\---VS 2017---\MISHA_STEP\CLASSWORK\05.03.19\DEBUG\PROJECT3.LIB" /MACHINE:X86 DEBUG\SOURCE.OBJ
