^E:\---VS 2017---\MISHA_STEP\HOMEWORK\PROJECT1\PROJECT5\DEBUG\SOURCE.OBJ
E:\---VS 2017---\MISHA_STEP\HOMEWORK\PROJECT1\DEBUG\PROJECT5.EXE
E:\---VS 2017---\MISHA_STEP\HOMEWORK\PROJECT1\DEBUG\PROJECT5.ILK
E:\---VS 2017---\MISHA_STEP\HOMEWORK\PROJECT1\DEBUG\PROJECT5.PDB
