^E:\---VS 2017---\MISHA_STEP\HOMEWORK\05.03.19\PROJECT1\SOURCE.CPP
E:\---VS 2017---\MISHA_STEP\HOMEWORK\05.03.19\PROJECT1\DEBUG\VC141.PDB
E:\---VS 2017---\MISHA_STEP\HOMEWORK\05.03.19\PROJECT1\DEBUG\VC141.IDB
E:\---VS 2017---\MISHA_STEP\HOMEWORK\05.03.19\PROJECT1\DEBUG\SOURCE.OBJ
