^D:\MISHA_STEP\CLASSWORK\25.04.19\DEBUG\SOURCE.OBJ
D:\MISHA_STEP\CLASSWORK\25.04.19\DEBUG\25.04.19.EXE
D:\MISHA_STEP\CLASSWORK\25.04.19\DEBUG\25.04.19.ILK
D:\MISHA_STEP\CLASSWORK\25.04.19\DEBUG\25.04.19.PDB
