^D:\MISHA_STEP\CLASSWORK\26.02.19\26.02.19\SOURCE.CPP
D:\MISHA_STEP\CLASSWORK\26.02.19\26.02.19\DEBUG\VC141.PDB
D:\MISHA_STEP\CLASSWORK\26.02.19\26.02.19\DEBUG\VC141.IDB
D:\MISHA_STEP\CLASSWORK\26.02.19\26.02.19\DEBUG\SOURCE.OBJ
