^D:\MISHA_STEP\CLASSWORK\18.04.19\PROJECT1\DEBUG\SOURCE.OBJ
D:\MISHA_STEP\CLASSWORK\18.04.19\DEBUG\PROJECT1.EXE
D:\MISHA_STEP\CLASSWORK\18.04.19\DEBUG\PROJECT1.ILK
D:\MISHA_STEP\CLASSWORK\18.04.19\DEBUG\PROJECT1.PDB
