^D:\MISHA_STEP\CLASSWORK\07.02.19\07.02.19\07.02.19\SOURCE.CPP
/c /ZI /JMC /nologo /W3 /WX- /diagnostics:classic /sdl /Od /Oy- /D _MBCS /Gm- /EHsc /RTC1 /MDd /GS /fp:precise /permissive- /Zc:wchar_t /Zc:forScope /Zc:inline /Fo"DEBUG\\" /Fd"DEBUG\VC141.PDB" /Gd /TP /analyze- /FC D:\MISHA_STEP\CLASSWORK\07.02.19\07.02.19\07.02.19\SOURCE.CPP
^E:\---VS 2017---\MISHA_STEP\CLASSWORK\07.02.19\07.02.19\07.02.19\SOURCE.CPP
/c /ZI /JMC /nologo /W3 /WX- /diagnostics:classic /sdl /Od /Oy- /D _MBCS /Gm- /EHsc /RTC1 /MDd /GS /fp:precise /permissive- /Zc:wchar_t /Zc:forScope /Zc:inline /Fo"DEBUG\\" /Fd"DEBUG\VC141.PDB" /Gd /TP /analyze- /FC E:\---VS 2017---\MISHA_STEP\CLASSWORK\07.02.19\07.02.19\07.02.19\SOURCE.CPP
