^D:\MISHA_STEP\CLASSWORK\09.04.19\09.04.19\SOURCE.CPP|D:\MISHA_STEP\CLASSWORK\09.04.19\09.04.19\SUM.CPP
D:\MISHA_STEP\CLASSWORK\09.04.19\09.04.19\DEBUG\VC141.PDB
D:\MISHA_STEP\CLASSWORK\09.04.19\09.04.19\DEBUG\VC141.IDB
D:\MISHA_STEP\CLASSWORK\09.04.19\09.04.19\DEBUG\SUM.OBJ
D:\MISHA_STEP\CLASSWORK\09.04.19\09.04.19\DEBUG\SOURCE.OBJ
^D:\MISHA_STEP\CLASSWORK\09.04.19\09.04.19\SUM.CPP
D:\MISHA_STEP\CLASSWORK\09.04.19\09.04.19\DEBUG\VC141.PDB
^D:\MISHA_STEP\CLASSWORK\09.04.19\09.04.19\DIF.CPP|D:\MISHA_STEP\CLASSWORK\09.04.19\09.04.19\SOURCE.CPP
D:\MISHA_STEP\CLASSWORK\09.04.19\09.04.19\DEBUG\VC141.PDB
D:\MISHA_STEP\CLASSWORK\09.04.19\09.04.19\DEBUG\VC141.IDB
D:\MISHA_STEP\CLASSWORK\09.04.19\09.04.19\DEBUG\SOURCE.OBJ
D:\MISHA_STEP\CLASSWORK\09.04.19\09.04.19\DEBUG\DIF.OBJ
^D:\MISHA_STEP\CLASSWORK\09.04.19\09.04.19\DIF.CPP
D:\MISHA_STEP\CLASSWORK\09.04.19\09.04.19\DEBUG\VC141.PDB
D:\MISHA_STEP\CLASSWORK\09.04.19\09.04.19\DEBUG\VC141.IDB
D:\MISHA_STEP\CLASSWORK\09.04.19\09.04.19\DEBUG\DIF.OBJ
^D:\MISHA_STEP\CLASSWORK\09.04.19\09.04.19\PERSON.CPP|D:\MISHA_STEP\CLASSWORK\09.04.19\09.04.19\SOURCE.CPP
D:\MISHA_STEP\CLASSWORK\09.04.19\09.04.19\DEBUG\VC141.PDB
D:\MISHA_STEP\CLASSWORK\09.04.19\09.04.19\DEBUG\VC141.IDB
D:\MISHA_STEP\CLASSWORK\09.04.19\09.04.19\DEBUG\SOURCE.OBJ
D:\MISHA_STEP\CLASSWORK\09.04.19\09.04.19\DEBUG\PERSON.OBJ
^D:\MISHA_STEP\CLASSWORK\09.04.19\09.04.19\SOURCE.CPP
D:\MISHA_STEP\CLASSWORK\09.04.19\09.04.19\DEBUG\VC141.PDB
^D:\MISHA_STEP\CLASSWORK\09.04.19\09.04.19\PERSON.CPP
D:\MISHA_STEP\CLASSWORK\09.04.19\09.04.19\DEBUG\VC141.PDB
D:\MISHA_STEP\CLASSWORK\09.04.19\09.04.19\DEBUG\VC141.IDB
D:\MISHA_STEP\CLASSWORK\09.04.19\09.04.19\DEBUG\PERSON.OBJ
^E:\---VS 2017---\MISHA_STEP\CLASSWORK\09.04.19\09.04.19\DIF.CPP|E:\---VS 2017---\MISHA_STEP\CLASSWORK\09.04.19\09.04.19\PERSON.CPP|E:\---VS 2017---\MISHA_STEP\CLASSWORK\09.04.19\09.04.19\SOURCE.CPP|E:\---VS 2017---\MISHA_STEP\CLASSWORK\09.04.19\09.04.19\SUM.CPP
E:\---VS 2017---\MISHA_STEP\CLASSWORK\09.04.19\09.04.19\DEBUG\VC141.PDB
E:\---VS 2017---\MISHA_STEP\CLASSWORK\09.04.19\09.04.19\DEBUG\VC141.IDB
E:\---VS 2017---\MISHA_STEP\CLASSWORK\09.04.19\09.04.19\DEBUG\SUM.OBJ
E:\---VS 2017---\MISHA_STEP\CLASSWORK\09.04.19\09.04.19\DEBUG\SOURCE.OBJ
E:\---VS 2017---\MISHA_STEP\CLASSWORK\09.04.19\09.04.19\DEBUG\PERSON.OBJ
E:\---VS 2017---\MISHA_STEP\CLASSWORK\09.04.19\09.04.19\DEBUG\DIF.OBJ
^E:\---VS 2017---\MISHA_STEP\CLASSWORK\09.04.19\09.04.19\DIF.CPP
E:\---VS 2017---\MISHA_STEP\CLASSWORK\09.04.19\09.04.19\DEBUG\VC141.PDB
^E:\---VS 2017---\MISHA_STEP\CLASSWORK\09.04.19\09.04.19\PERSON.CPP
E:\---VS 2017---\MISHA_STEP\CLASSWORK\09.04.19\09.04.19\DEBUG\VC141.PDB
^E:\---VS 2017---\MISHA_STEP\CLASSWORK\09.04.19\09.04.19\SOURCE.CPP
E:\---VS 2017---\MISHA_STEP\CLASSWORK\09.04.19\09.04.19\DEBUG\VC141.PDB
^E:\---VS 2017---\MISHA_STEP\CLASSWORK\09.04.19\09.04.19\SUM.CPP
E:\---VS 2017---\MISHA_STEP\CLASSWORK\09.04.19\09.04.19\DEBUG\VC141.PDB
