^E:\---VS 2017---\MISHA_STEP\HOMEWORK\19.02.19\19.02.19\SOURCE.CPP
E:\---VS 2017---\MISHA_STEP\HOMEWORK\19.02.19\19.02.19\DEBUG\VC141.PDB
E:\---VS 2017---\MISHA_STEP\HOMEWORK\19.02.19\19.02.19\DEBUG\VC141.IDB
E:\---VS 2017---\MISHA_STEP\HOMEWORK\19.02.19\19.02.19\DEBUG\SOURCE.OBJ
