^E:\---VS 2017---\MISHA_STEP\HOMEWORK\19.03.19\PROJECT1\DEBUG\SOURCE.OBJ
E:\---VS 2017---\MISHA_STEP\HOMEWORK\19.03.19\DEBUG\PROJECT1.EXE
E:\---VS 2017---\MISHA_STEP\HOMEWORK\19.03.19\DEBUG\PROJECT1.ILK
E:\---VS 2017---\MISHA_STEP\HOMEWORK\19.03.19\DEBUG\PROJECT1.PDB
