^E:\---VS 2017---\MISHA_STEP\CLASSWORK\LESSON_18\LESSON_18\SOURCE.CPP
E:\---VS 2017---\MISHA_STEP\CLASSWORK\LESSON_18\LESSON_18\DEBUG\VC141.PDB
E:\---VS 2017---\MISHA_STEP\CLASSWORK\LESSON_18\LESSON_18\DEBUG\VC141.IDB
E:\---VS 2017---\MISHA_STEP\CLASSWORK\LESSON_18\LESSON_18\DEBUG\SOURCE.OBJ
