^D:\MISHA_STEP\CLASSWORK\26.02.19\PROJECT3\DEBUG\SOURCE.OBJ
D:\MISHA_STEP\CLASSWORK\26.02.19\DEBUG\PROJECT3.EXE
D:\MISHA_STEP\CLASSWORK\26.02.19\DEBUG\PROJECT3.ILK
D:\MISHA_STEP\CLASSWORK\26.02.19\DEBUG\PROJECT3.PDB
