^E:\---VS 2017---\MISHA_STEP\HOMEWORK\14.03.19\14.03.19\SOURCE.CPP
E:\---VS 2017---\MISHA_STEP\HOMEWORK\14.03.19\14.03.19\DEBUG\VC141.PDB
E:\---VS 2017---\MISHA_STEP\HOMEWORK\14.03.19\14.03.19\DEBUG\VC141.IDB
E:\---VS 2017---\MISHA_STEP\HOMEWORK\14.03.19\14.03.19\DEBUG\SOURCE.OBJ
